<?xml version="1.0" encoding="utf-8"?>
<!-- Generator: Adobe Illustrator 25.2.1, SVG Export Plug-In . SVG Version: 6.00 Build 0)  -->
<svg version="1.1" id="b3610dfe-b8fa-4701-9393-2c36a069038b"
	 xmlns="http://www.w3.org/2000/svg" xmlns:xlink="http://www.w3.org/1999/xlink" x="0px" y="0px" viewBox="0 0 775.5 559.8"
	 style="enable-background:new 0 0 775.5 559.8;" xml:space="preserve">
<style type="text/css">
	.st0{fill:#E6E6E6;}
	.st1{fill:#A0616A;}
	.st2{fill:#2F2E41;}
	.st3{fill:#006E7D;}
	.st4{fill:#3F3D56;}
	.st5{fill:#FFFFFF;}
</style>
<ellipse class="st0" cx="671.9" cy="551.9" rx="103.7" ry="7.9"/>
<path class="st1" d="M712,325.5l-10,28c-1.6,4.4,0.2,9.2,4.1,11.6l0,0c4.6,2.8,10.6,1.3,13.4-3.3c0.7-1.2,1.2-2.6,1.4-4l3.2-28.3
	l24.1-79.6l-20.7-10L712,325.5z"/>
<polygon class="st1" points="703.7,536.7 718.4,536.7 718.4,393.5 684.9,392.8 "/>
<polygon class="st1" points="638.1,536.7 652.8,536.7 652.8,393.5 619.3,392.8 "/>
<path class="st2" d="M720.7,408.5l-38.2-4l-8-42.2l-14.7,42.8l-45.5-4.7l18.7-70.9c34.3-23.3,66.8-22.8,97.7,0L720.7,408.5z"/>
<path class="st2" d="M656.1,542.8c0.8,6.6-3.8,12.5-10.4,13.3c-1,0.1-2.1,0.1-3.1,0l-27.1-3.7c-5.1-0.8-8.5-5.5-7.7-10.6l0,0
	c0.7-4.5,4.6-7.9,9.2-7.9h4.5l14.7-13.4c0.1,9.1,6.9,7.1,18,6.2L656.1,542.8z"/>
<path class="st2" d="M721.7,542.8c0.8,6.6-3.8,12.5-10.4,13.3c-1,0.1-2.1,0.1-3.1,0l-27.1-3.7c-5.1-0.8-8.5-5.5-7.7-10.6l0,0
	c0.7-4.5,4.6-7.9,9.2-7.9h4.5l14.7-13.4c0.1,9.1,6.9,7.1,18,6.2L721.7,542.8z"/>
<circle class="st1" cx="669.4" cy="141.3" r="23.6"/>
<polygon class="st1" points="699.3,180.9 669.9,183.6 669.9,157.5 685.3,148.2 "/>
<path class="st0" d="M734.1,339.6c-29.6-21.7-65.2-19.5-104.4-2.7c17.8-50.3,25.3-97.2,11.4-136.8c0-14.4,9.8-27,23.7-30.6l5.1-1.3
	l24.8,1.3l23.3,13.6c9.6,5.7,15.6,16,15.6,27.2L734.1,339.6z"/>
<path class="st1" d="M619.7,320.2l-10,28c-1.6,4.4,0.2,9.2,4.1,11.6l0,0c4.6,2.8,10.6,1.3,13.4-3.3c0.7-1.2,1.2-2.6,1.4-4l3.2-28.3
	l24.1-79.6l-20.7-10L619.7,320.2z"/>
<path class="st0" d="M753.5,265.3h-32.8V185l0,0c11.5,6.4,19.6,17.4,22.3,30.3L753.5,265.3z"/>
<path class="st2" d="M651.4,128.5c-2.9,1.4-6.4,1.2-9.1-0.5c-2.7-1.8-3.9-5.2-2.9-8.3c1-2.6,3.5-4.2,6-5.4
	c5.4-2.8,11.2-4.7,17.1-5.7c2.8-0.5,5.9-0.8,8.5,0.3c1.3,0.5,2.5,1.3,3.8,1.9c2.4,1,5.1,1,7.7,1.5c5.3,1.2,9.9,4.6,12.5,9.4
	c0.8,1.6,1.5,3.3,1.9,5.1c1.2,4.8,1.2,9.9,0,14.7c-2,7.6-7.2,14.6-6.7,22.5c-3.8-2.2-5.6-6.7-8.8-9.8c-2.4-2.2-5.4-3.6-8.7-3.9
	c-0.9,0-1.8-0.2-2.5-0.6c-0.6-0.5-0.9-1.2-1.1-2l-3.6-11.2c-0.7-2.3-1.6-4.8-3.7-6c-1.3-0.6-2.7-1-4.1-1c-3.4-0.2-6.8-0.2-10.2,0.1"
	/>
<path class="st0" d="M659.2,250.6L621,235.8l17.3-46.7c4.1-11.1,14.4-18.8,26.2-19.6l0,0L659.2,250.6z"/>
<path class="st0" d="M453.9,499.8h-419c-4.1,0-7.5-3.4-7.5-7.5v-457c0-4.1,3.4-7.5,7.5-7.5h419c4.1,0,7.5,3.4,7.5,7.5v457
	C461.4,496.4,458.1,499.8,453.9,499.8z M34.9,30.8c-2.5,0-4.5,2-4.5,4.5v457c0,2.5,2,4.5,4.5,4.5h419c2.5,0,4.5-2,4.5-4.5v-457
	c0-2.5-2-4.5-4.5-4.5H34.9z"/>
<circle class="st0" cx="121.4" cy="188.3" r="9.8"/>
<circle class="st0" cx="162.4" cy="188.3" r="9.8"/>
<circle class="st3" cx="203.4" cy="188.3" r="9.8"/>
<circle class="st3" cx="244.4" cy="188.3" r="9.8"/>
<circle class="st3" cx="285.4" cy="188.3" r="9.8"/>
<circle class="st0" cx="326.5" cy="188.3" r="9.8"/>
<circle class="st0" cx="367.5" cy="188.3" r="9.8"/>
<circle class="st0" cx="121.4" cy="219.5" r="9.8"/>
<circle class="st0" cx="162.4" cy="219.5" r="9.8"/>
<circle class="st0" cx="203.4" cy="219.5" r="9.8"/>
<circle class="st0" cx="244.4" cy="219.5" r="9.8"/>
<circle class="st0" cx="285.4" cy="219.5" r="9.8"/>
<circle class="st0" cx="326.5" cy="219.5" r="9.8"/>
<circle class="st0" cx="367.5" cy="219.5" r="9.8"/>
<circle class="st3" cx="121.4" cy="250.6" r="9.8"/>
<circle class="st3" cx="162.4" cy="250.6" r="9.8"/>
<circle class="st3" cx="203.4" cy="250.6" r="9.8"/>
<circle class="st0" cx="244.4" cy="250.6" r="9.8"/>
<circle class="st0" cx="285.4" cy="250.6" r="9.8"/>
<circle class="st0" cx="326.5" cy="250.6" r="9.8"/>
<circle class="st0" cx="367.5" cy="250.6" r="9.8"/>
<circle class="st0" cx="121.4" cy="281.8" r="9.8"/>
<circle class="st0" cx="162.4" cy="281.8" r="9.8"/>
<circle class="st0" cx="121.4" cy="313" r="9.8"/>
<circle class="st0" cx="162.4" cy="313" r="9.8"/>
<circle class="st0" cx="203.4" cy="313" r="9.8"/>
<circle class="st0" cx="203.4" cy="281.8" r="9.8"/>
<circle class="st3" cx="244.4" cy="281.8" r="9.8"/>
<circle class="st3" cx="285.4" cy="281.8" r="9.8"/>
<circle class="st3" cx="326.5" cy="281.8" r="9.8"/>
<circle class="st0" cx="367.5" cy="281.8" r="9.8"/>
<path id="a332a05d-d774-4fd2-8531-ab97682a63e9" class="st4" d="M169.9,101.3c-3.3,0.1-5.9,2.8-5.8,6c0.1,3.2,2.6,5.8,5.8,5.8H319
	c3.3,0.1,6-2.6,6.1-5.8s-2.6-6-5.8-6.1c0,0,0,0,0,0c-0.1,0-0.1,0-0.2,0H169.9z"/>
<path class="st0" d="M352.8,99.6c-0.5,0.5-0.5,1.2,0,1.7c0,0,0,0,0,0l5,5h-12.4c-0.6,0-1.2,0.5-1.2,1.2c0,0.6,0.5,1.2,1.2,1.2h12.4
	l-5,5c-0.5,0.5-0.5,1.2,0,1.7c0.5,0.5,1.2,0.5,1.7,0l0,0l7-7c0.5-0.5,0.5-1.2,0-1.7l-7-7C354,99.2,353.3,99.2,352.8,99.6
	C352.8,99.6,352.8,99.6,352.8,99.6z"/>
<path class="st0" d="M136,99.6c0.5,0.5,0.5,1.2,0,1.7c0,0,0,0,0,0l-5,5h12.4c0.6,0,1.2,0.5,1.2,1.2c0,0.6-0.5,1.2-1.2,1.2
	c0,0,0,0,0,0H131l5,5c0.5,0.5,0.5,1.2,0,1.7c-0.5,0.5-1.2,0.5-1.7,0l0,0l-7-7c-0.5-0.5-0.5-1.2,0-1.7l7-7
	C134.8,99.2,135.6,99.2,136,99.6C136,99.6,136,99.6,136,99.6z"/>
<path class="st0" d="M161.6,385.6c-11.8,0-21.3,9.5-21.3,21.3c0,11.8,9.5,21.3,21.3,21.3c0,0,0,0,0,0h165.7
	c11.8,0,21.3-9.5,21.3-21.3c0-11.8-9.5-21.3-21.3-21.3c0,0,0,0,0,0H161.6z"/>
<path class="st3" d="M34.3,68.5C15.3,68.5,0,53.2,0,34.3C0,15.3,15.3,0,34.3,0s34.3,15.3,34.3,34.3C68.5,53.2,53.2,68.5,34.3,68.5z"
	/>
<path class="st5" d="M47.8,30.9H37.7V20.7c0-1.9-1.5-3.4-3.4-3.4s-3.4,1.5-3.4,3.4v10.1H20.7c-1.9,0-3.4,1.5-3.4,3.4
	c0,1.9,1.5,3.4,3.4,3.4h10.1v10.1c0,1.9,1.5,3.4,3.4,3.4s3.4-1.5,3.4-3.4V37.7h10.1c1.9,0,3.4-1.5,3.4-3.4
	C51.2,32.4,49.7,30.9,47.8,30.9z"/>
</svg>
