digraph gold {
  create_test [ shape = box, label = "Create test" ];
  create_output [ shape = diamond, label = "Create output" ];

  create_test -> create_output;

  golden_output [ shape = box, style=filled, fillcolor=green, color = darkgreen, label = "Golden output" ];
  failure_missing [ shape = box, color = red, label = "Failure (no output)" ];

  create_output -> golden_output [ label = "Yes" ];
  create_output -> failure_missing [ label = "No" ];

  update_code [ label = "Update code" ];
  golden_output -> update_code [ style = "dotted" ];

  reset_output [ shape = diamond, label = "Reset output" ];
  update_code -> reset_output;
  failure_different [ shape = box, color = red, label = "Failure (different output)" ];
  reset_output -> golden_output [ label = "Yes" ];
  reset_output -> failure_different [ label = "No" ];
} 
