<?xml version="1.0" encoding="UTF-8" standalone="no"?>
<svg xmlns="http://www.w3.org/2000/svg"
xmlns:xlink="http://www.w3.org/1999/xlink"
version="1.0" width="425" height="415">
<defs>


</defs>



<rect x="10" y="10" width="100px" height="300"   rx="10" ry="10" stroke-width="10" stroke="black" /> 
<circle r="40" fill="red" cx="60" cy="60" />
<circle r="40" fill="grey" cx="60" cy="160" />
<circle r="40" fill="grey" cx="60" cy="260" />
<text font-size="100" x="35" y="400" font-family="arial">1</text>
<g transform="translate(150,0)">
<rect x="10" y="10" width="100px" height="300"   rx="10" ry="10" stroke-width="10" stroke="black" /> 
<circle r="40" fill="grey" cx="60" cy="60" />
<circle r="40" fill="grey" cx="60" cy="160" />
<circle r="40" fill="lime" cx="60" cy="260" />
<text font-size="100" x="35" y="400" font-family="arial">2</text>
</g>

<g transform="translate(300,0)">
<rect x="10" y="10" width="100px" height="300"   rx="10" ry="10" stroke-width="10" stroke="black" /> 
<circle r="40" fill="grey" cx="60" cy="60" />
<circle r="40" fill="yellow" cx="60" cy="160" />
<circle r="40" fill="grey" cx="60" cy="260" />
<text font-size="100" x="35" y="400" font-family="arial">3</text>
</g>


</svg>