<?xml version="1.0" encoding="utf-8"?>
<!-- Generator: Adobe Illustrator 22.0.1, SVG Export Plug-In . SVG Version: 6.00 Build 0)  -->
<svg version="1.1" id="Layer_1" xmlns="http://www.w3.org/2000/svg" xmlns:xlink="http://www.w3.org/1999/xlink" x="0px" y="0px"
	 viewBox="0 0 175 40" style="enable-background:new 0 0 175 40;" xml:space="preserve">
<style type="text/css">
	.st0{fill-rule:evenodd;clip-rule:evenodd;fill:#203451;}
	.st1{fill-rule:evenodd;clip-rule:evenodd;fill:#F49A00;}
</style>
<g>
	<path class="st0" d="M22,38.2c3.7-0.4,6.4-1.6,6.4-3v-3.6H10.7v3.6c0,1.4,2.7,2.6,6.4,3v0.9c0,0.5,1.1,0.9,2.4,0.9
		c1.3,0,2.4-0.4,2.4-0.9V38.2z"/>
	<path class="st1" d="M9.2,4.2l20.6,0c1,0,1.8-0.9,1.8-2.1c0-1.2-0.8-2.1-1.8-2.1L9.2,0c-1,0-1.8,0.9-1.8,2.1
		C7.5,3.3,8.2,4.2,9.2,4.2 M9.2,25.2l20.6,0c1,0,1.8,0.9,1.8,2.1c0,1.2-0.8,2.1-1.8,2.1H9.2c-1,0-1.8-0.9-1.8-2.1
		C7.5,26.2,8.2,25.2,9.2,25.2 M6,18.9l27.2,0c1.3,0,2.3,0.9,2.3,2.1c0,1.2-1,2.1-2.3,2.1L6,23.1c-1.3,0-2.3-0.9-2.3-2.1
		C3.6,19.9,4.7,18.9,6,18.9 M2.8,12.6h33.4c1.6,0,2.8,0.9,2.8,2.1c0,1.2-1.3,2.1-2.8,2.1H2.8c-1.6,0-2.8-0.9-2.8-2.1
		C0,13.6,1.3,12.6,2.8,12.6 M6,10.5l27.2,0c1.3,0,2.3-0.9,2.3-2.1s-1-2.1-2.3-2.1L6,6.3c-1.3,0-2.3,0.9-2.3,2.1
		C3.6,9.6,4.7,10.5,6,10.5"/>
	<path class="st0" d="M124.9,18.1v13.1h16.9v-3.6h-12.9v-6h11.3v-3.6H124.9z M170.8,20c0,4.3-3.2,7.9-7.6,7.9c-4.4,0-7.7-3.7-7.7-8
		c0-4.1,3-7.8,7.3-7.9C167.4,11.9,170.8,15.6,170.8,20 M175,20c0-6.5-5.3-11.6-11.8-11.6c-6.5,0-11.8,5.1-11.8,11.6
		c0,6.5,5.3,11.6,11.8,11.6C169.7,31.6,175,26.5,175,20 M107.8,12.4h7.2V8.8H96.6v3.6h7.2v18.8h4V12.4z M82.4,31.2h3.9V8.8h-3.9
		V31.2z M66.6,24.3L54.6,8.8h-3.7v22.4h3.9V15.3l12.4,15.9h3.3V8.8h-3.9V24.3z"/>
	<path class="st1" d="M141.1,8.8h-15.5c-0.8,0-1.5,0.7-1.5,1.5v0.6c0,0.8,0.7,1.5,1.5,1.5h15.5c0.8,0,1.5-0.7,1.5-1.5v-0.6
		C142.6,9.5,141.9,8.8,141.1,8.8"/>
</g>
</svg>
