digraph initial {
  rankdir="LR";
  Server1 [ label = "Server 1" ];
  {rank=same
    Client1 [ label = "Client 1" ];
    Client2 [ label = "Client 2" ];
  }
  Client1 -> Client2 [ color = "black:white:black" ];
  Client1 -> Server1;
  Client2 -> Server1 [ arrowhead = invempty ];
  
}
