digraph initial {
  rankdir="LR";
  {rank=same
    Server15 [ label = "Server 1.5" ];
    Server2 [ label = "Server 2" ];
  }
  Client2 [ label = "Client 2" ];
  Server15 -> Server2 [ color = "black:white:black" ];
  Client2 -> Server15;
  Client2 -> Server2;
  
}
