digraph pipeline {
  node [shape="rectangle"];

  start [style="invis"];
  fetchers [label="Fetchers"];
  scraper [label="Scraper"];
  queue [label="Queue"];
  store [label="Store"];

  start -> queue [label="Seed"];
  fetchers -> scraper [label="Content"];
  scraper -> queue [label="Urls"];
  queue -> fetchers;
  scraper -> store [label="Addresses"];

  rankdir=LR;
}
