digraph haphviz {
  node [width=<0>, height=<0>];
  rankdir = LR;
  0 [label=<a>];
  1 [label=<b>, shape=<doublecircle>];
  2 [label=<c>];
  3 [style=<invis>];
  3 -> 0;
  0 -> 1 [label=<p>];
  1 -> 1 [label=<q>];
  1 -> 2 [label=<p>];
}
