<?xml version="1.0" standalone="no"?>
<!DOCTYPE svg PUBLIC "-//W3C//DTD SVG 20010904//EN"
 "http://www.w3.org/TR/2001/REC-SVG-20010904/DTD/svg10.dtd">
<svg version="1.0" xmlns="http://www.w3.org/2000/svg"
 width="833.000000pt" height="333.000000pt" viewBox="0 0 833.000000 333.000000"
 preserveAspectRatio="xMidYMid meet">

<g transform="translate(0.000000,333.000000) scale(0.100000,-0.100000)"
fill="#000000" stroke="none">
<path d="M1295 2444 c-655 -410 -1203 -753 -1219 -763 l-28 -18 1121 -701
1121 -701 0 492 0 492 -335 209 c-184 115 -334 210 -332 211 31 26 866 539
876 539 9 1 123 -66 253 -148 l238 -148 390 243 c214 134 390 246 390 249 -1
9 -1258 790 -1271 790 -8 -1 -549 -336 -1204 -746z"/>
<path d="M4165 2151 l-1450 -908 -3 -491 -2 -491 712 445 c392 245 721 450
730 455 14 7 169 -85 738 -441 396 -247 722 -450 725 -450 3 0 5 220 5 488 l0
489 -325 202 c-179 112 -328 207 -330 211 -3 5 143 101 325 215 l330 206 0
490 c0 269 -1 489 -2 488 -2 0 -655 -409 -1453 -908z"/>
<path d="M6040 2572 l0 -487 335 -209 c184 -115 332 -212 329 -215 -3 -3 -152
-98 -332 -211 l-327 -205 -3 -494 -2 -493 22 14 c13 8 511 320 1108 693 597
372 1091 683 1098 689 10 10 -223 159 -1103 709 -613 383 -1117 697 -1120 697
-3 0 -5 -219 -5 -488z"/>
</g>
</svg>
